Name,Path,Wait,Enabled
SimToolkitPro,C:\Users\<username>\AppData\Local\simtoolkitpro\SimToolkitPro.exe,2,0
VPilot,E:\vpilot\vPilot.exe,5,1
SimBriefDownloader,"C:\Users\<username>\AppData\Local\Programs\SimBrief Downloader\SimBrief Downloader.exe",5,0
EFB,"D:\Program Files\AivlaSoft\EFB2\Server\AivlaSoft.Efb.Server.exe",10,0